{
  "model": "Places",
  "settings": {
    "i18n": {
      "el": {
        "Set the name of this place": "Ορίστε την ονομασία της τοποθεσίας",
        "Write a short description for this item": "Γράψτε μία σύντομη περιγραφή για αυτό το στοιχείο",
        "Set the maximum attendee capacity of this place": "Ορίστε τον μέγιστο αριθμό ατόμων που μπορεί να φιλοξενήσει η συγκεκριμένη τοποθεσία",
        "Parent Place": "Πατρική Τοποθεσία",
        "Attendee Capacity": "Χωρητικότητα",
        "Set the display code of the place": "Ορίστε τον κωδικό της τοποθεσίας",
        "Display Code": "Κωδικός"
      }
    }
  },
  "components": [
    {
      "type": "fieldset",
      "components": [
        {
          "label": "HTML",
          "tag": "h5",
          "className": "font-weight-normal",
          "content": "{{form.subtitle}}",
          "refreshOnChange": false,
          "tableView": false,
          "key": "subtitle",
          "type": "htmlelement",
          "input": false
        },
        {
          "columns": [
            {
              "components": [
                {
                  "label": "Name",
                  "labelPosition": "top",
                  "widget": {
                    "type": "input"
                  },
                  "validate": {
                    "required": true
                  },
                  "key": "name",
                  "type": "textfield",
                  "input": true,
                  "disabled": false,
                  "description": "Set the name of this place"
                }
              ],
              "width": 6
            },
            {
              "components": [
                {
                  "label": "Display Code",
                  "labelPosition": "top",
                  "key": "displayCode",
                  "type": "textfield",
                  "input": true,
                  "description": "Set the display code of the place"
                }
              ],
              "width": 6
            },
            {
              "components": [
                {
                  "label": "Attendee Capacity",
                  "labelPosition": "top",
                  "widget": {
                    "type": "input"
                  },
                  "validate": {
                    "min": 0,
                    "integer": true
                  },
                  "key": "maximumAttendeeCapacity",
                  "type": "number",
                  "input": true,
                  "description": "Set the maximum attendee capacity of this place", 
                  "calculateValue": "value = (data.maximumAttendeeCapacity >= 0 ? value : '');"
                }
              ],
              "width": 6
            },
            {
              "components": [
                {
                  "label": "Parent Place",
                  "labelPosition": "top",
                  "widget": "choicesjs",
                  "dataSrc": "url",
                  "data": {
                    "url": "Places?$select=id,name,containedInPlace&$top=-1",
                    "headers": []
                  },
                  "template": "{{ item.name }}",
                  "selectValues": "value",
                  "key": "containedInPlace",
                  "valueProperty": "id",
                  "lazyLoad": true,
                  "type": "select",
                  "input": true
                }
              ],
              "width": 6
            },
            {
              "components": [
                {
                  "label": "Description",
                  "labelPosition": "top",
                  "widget": {
                    "type": "input"
                  },
                  "validate": {
                    "required": false
                  },
                  "key": "description",
                  "type": "textarea",
                  "input": true,
                  "description": "Write a short description for this item"
                }
              ],
              "width": 12
            }
          ],
          "customClass": "text-dark",
          "hideLabel": true,
          "type": "columns",
          "input": false
        }
      ]
    },
    {
      "type": "button",
      "label": "Submit",
      "key": "submit",
      "disableOnInvalid": true,
      "input": true
    }
  ]
}
