{
    "model": "CandidateSources",
    "CandidateSource": "Πηγή",
    "settings": {
      "i18n": {
        "el": {
            "Candidate Source": "Πηγή δεδομένων υποψηφίων",
            "Select the candidate source": "Επιλέξτε την πηγή που συνδέεται με το αρχείο παραμετροποίησης",
            "Update all candidate student data, even if they have been already imported to the system": "Να ενημερωθούν τα στοιχεία όλων των φοιτητών του αρχείου, ακόμη και αν κάποιοι έχουν ήδη εισαχθεί σε προηγούμενη προσπάθεια."
        }
      }
    },
    "components": [
      {
        "type": "fieldset",
        "components": [
          {
            "columns": [
              {
                "components": [
                  {
                    "label": "Candidate Source",
                    "labelPosition": "top",
                    "widget": "choicesjs",
                    "dataSrc": "url",
                    "data": {
                      "url": "CandidateSources?$filter=schemaURL ne null&$top=-1",
                      "headers": []
                    },
                    "validate": {
                      "required": true
                    },
                    "idPath": "id",
                    "lazyLoad": true,
                    "dataType": "object",
                    "template": "{{item.name}}",
                    "selectThreshold": 0.3,
                    "key": "candidateSource",
                    "type": "select",
                    "selectValues": "value",
                    "input": true,
                    "customClass": "formio-component-select-wrap",
                    "description": "Select the candidate source"
                  },
                  {
                    "label": "Update all candidate student data, even if they have been already imported to the system",
                    "defaultValue": false,
                    "validate": {
                        "unique": false,
                        "multiple": false
                    },
                    "key": "forceUpdate",
                    "type": "checkbox",
                    "input": true
                  }
                ],
                "width": 6
              }
            ],
            "customClass": "text-dark",
            "hideLabel": true,
            "type": "columns",
            "input": false
          }
        ]
      }
    ],
    "width": 3
  }
  