{
  "model": "ObjectValidateActionResults",
  "title": "Internship rules results",
  "searchExpression": "indexof(student/studentIdentifier, '${text}') ge 0 or indexof(student/person/familyName, '${text}') ge 0 or indexof(student/studyProgram/abbreviation, '${text}') ge 0 )",
  "selectable": false,
  "columns": [
    {
      "name": "student/id",
      "property": "id",
      "formatter": "ButtonFormatter",
      "formatString": "#/students/${id}/dashboard",
      "className": "text-center",
      "formatOptions": {
        "buttonContent": "<i class=\"far fa-eye text-indigo\"></i>",
        "buttonClass": "btn btn-default"
      }
    },

    {
      "name": "student/studentIdentifier",
      "property": "studentIdentifier",
      "title": "Students.studentIdentifier"
    },
    {
      "name": "student/person/familyName",
      "property": "familyName",
      "title": "Students.fullName",
      "formatter": "TemplateFormatter",
      "formatString": "${familyName} ${givenName}"
    },
    {
      "name": "student/person/givenName",
      "property": "givenName",
      "title": "Students.GivenName",
      "hidden": true
    },
    {
      "name": "student/studyProgram/abbreviation",
      "property": "studyProgram",
      "title": "Students.studyProgram"
    },
    {
      "name": "student/semester",
      "property": "semester",
      "title": "Students.semester"
    },
    {
      "name": "student/inscriptionYear/alternateName",
      "property": "inscriptionYear",
      "title": "Students.inscriptionYear"
    },
    {
      "name": "student/inscriptionPeriod/alternateName",
      "property": "inscriptionPeriod",
      "title": "Students.inscriptionPeriod",
      "formatter": "TranslationFormatter",
      "formatString": "Periods.${value}"
    },
    {
      "name": "student/studentStatus/alternateName",
      "property": "studentStatus",
      "title": "Students.Status",
      "formatter": "TranslationFormatter",
      "formatString": "StudentStatuses.${value}"
    },
    {
      "name": "action/dateCreated",
      "property": "dateCreated",
      "title": "Rules.CheckDate",
      "formatter": "DateTimeFormatter",
      "formatString": "short"
    },
    {
      "name":"result",
      "property": "result",
      "title":"Rules.RulesMet",
      "formatters": [
        {
          "formatter": "TrueFalseFormatter"
        },
        {
          "formatter": "NgClassFormatter",
          "formatOptions": {
            "ngClass": {
              "text-success": "${result}",
              "d-none": "${result==null}",
              "text-danger": "${!result}"
            }
          }
        }
      ]
    }
  ],
  "defaults": {
    "filter": "(action/object eq '${currentDepartment}' and action/objectType eq 'Department' and action/validationObjectType eq 'Internship')",
    "orderBy": "action/dateCreated desc"
  },
  "criteria": [
    {
      "name": "studyProgram",
      "filter": "(indexof(student/studyProgram/name, '${value}') ge 0 )",
      "type": "text"
    },
    {
      "name": "familyName",
      "filter": "(indexof(student/person/familyName, '${value}') ge 0)",
      "type": "text"
    },
    {
      "name": "studentStatus",
      "filter": "(student/studentStatus/alternateName eq '${value}')",
      "type": "text"
    },
    {
      "name": "inscriptionYear",
      "filter": "(student/inscriptionYear/name eq '${value}')",
      "type": "text"
    },
    {
      "name": "studentIdentifier",
      "filter": "(student/studentIdentifier eq '${value}')",
      "type": "text"
    },
    {
      "name": "result",
      "filter": "${value >= 1 ? '(result eq 1)' : '(result eq 0)'}",
      "type": "text"
    },
    {
      "name": "studentName",
      "filter": "(indexof(student/person/familyName, '${value}') ge 0 or indexof(student/person/givenName, '${value}') ge 0)",
      "type": "text"
    },
    {
      "name": "actionId",
      "filter": "(action/id eq '${value}')",
      "type": "text"
    }
  ]
}
