{
    "model": "Internships",
    "title": "New internship",
    "display": "form",
    "settings": {
        "i18n": {
            "el": {
                "New internship": "Νέα πρακτική άσκηση",
                "Select the department this internship will be bind with. This defaults to the student's department.": "Επιλέξτε το τμήμα με το οποίο θα συνδεθεί αυτή η πρακτική άσκηση. Ως προεπιλογή ορίζεται το τμήμα του φοιτητή.",
                "Select the brand name of the company that offers this internship.": "Επιλέξτε την επωνυμία της εταιρείας που την προσφέρει",
                "Set the communication manager employee": "Ορίστε τον υπεύθυνο υπάλληλο επικοινωνίας της εταιρείας",
                "Set the contact phone number of the company. It must also contain the country code.": "Ορίστε το τηλέφωνο επικοινωνίας της εταιρείας. Πρέπει να περιέχει και τον κωδικό της χώρας.",
                "Set the academic year the internship will take place in.": "Ορίστε το ακαδημαϊκό έτος στο οποίο θα πραγματοποιηθεί η πρακτική άσκηση.",
                "Select the full date the internship will start": "Επιλέξτε την πλήρη ημερομηνία έναρξης της",
                "Select the status of this internship. It defaults to potential.": "Επιλέξτε την κατάσταση της πρακτικής άσκησης. Ως προεπιλογή ορίζεται σε εξέλιξη.",
                "Select the academic period the internship will take place in.": "Επιλέξτε την ακαδημαϊκή περίοδο πραγματοποιήσης της",
                "Set the name of the internship. This should be as descriptive as possible and no more than 512 characters.": "Ορίστε το όνομα της πρακτικής. Προτείνεται να είναι όσο πιο επεξηγηματικό γίνεται και να μη ξεπερνάει τους 512 χαρακτήρες σε μήκος.",
                "Set the student's given name": "Ορίστε το όνομα του φοιτητή",
                "Set the student's family name": "Ορίστε το επώνυμο του φοιτητή",
              "Edit the number of ECTS the student will receive for completing the internship": "Ορίστε τον αριθμό ECTS που θα πιστωθούν στον φοιτητή για την ολοκλήρωση της.",
              "Edit the number of units the student will receive for completing the internship": "Ορίστε τον αριθμό διδακτικών μονάδων που θα πιστωθούν στον φοιτητή για την ολοκλήρωση της.",
              "Duration (months)" : "Διάρκεια (σε μήνες)",
              "Working days (per week)": "Ημέρες απασχόλησης (ανά εβδομάδα)"
          }
        }
    },
    "components": [
      {
        "legend": "Student Information",
        "key": "fieldSet",
        "type": "fieldset",
        "input": false,
        "label": "Student Information",
        "customConditional": "show = (data.student != null)",
        "components": [
          {
            "columns": [
              {
                "components": [
                  {
                    "label": "Student Number",
                    "labelPosition": "top",
                    "key": "student.studentIdentifier",
                    "type": "number",
                    "input": true,
                    "disabled": true,
                    "validate": {
                      "required": false
                    }
                  }
                ],
                "width": 4,
                "offset": 0,
                "push": 0,
                "pull": 0
              },
              {
                "components": [
                  {
                    "label": "Given Name",
                    "labelPosition": "top",
                    "dataSrc": "url",
                    "widget": {
                      "type": "input"
                    },
                    "key": "student.person.givenName",
                    "type": "textfield",
                    "input": true,
                    "refreshOn": "student.studentIdentifier",
                    "lazyLoad": true,
                    "disabled": true,
                    "calculateValue": "value = data.student.person.givenName",
                    "description": "Set the student's given name"
                  }
                ],
                "width": 4,
                "offset": 0,
                "push": 0,
                "pull": 0
              },
              {
                "components": [
                  {
                    "label": "Family Name",
                    "lazyLoad": false,
                    "labelPosition": "top",
                    "key": "student.person.familyName",
                    "type": "textfield",
                    "input": true,
                    "refreshOn": "student.studentIdentifier",
                    "clearOnRefresh": true,
                    "disabled": true,
                    "calculateValue": "value = data.student.person.familyName",
                    "description": "Set the student's family name"
                  }
                ],
                "width": 4,
                "offset": 0,
                "push": 0,
                "pull": 0
              }
            ],
            "customClass": "text-dark",
            "type": "columns",
            "input": false
          }
        ]
      },
        {
            "legend": "Internship Information",
            "key": "fieldSet",
            "type": "fieldset",
            "input": false,
            "label": "Internship Information",
            "components": [
                {
                    "columns": [
                        {
                            "components": [
                                {
                                    "type": "select",
                                    "label": "Department",
                                    "labelPosition": "top",
                                    "dataSrc": "url",
                                    "data": {
                                        "url": "LocalDepartments/?$select=id,name",
                                        "headers": []
                                    },
                                    "template": "<span class='d-block pr-5 text-truncate'>{{ item.name }}</span>",
                                    "selectValues": "value",
                                    "widget": "choicesjs",
                                    "key": "department",
                                    "input": true,
                                    "hidden": true,
                                    "lazyLoad": false,
                                    "searchEnabled": true,
                                    "searchFields":[ "value.id", "value.name" ],
                                    "description": "Select the department this internship will be bind with. This defaults to the student's department."
                                }
                            ],
                            "width": 9,
                            "offset": 0,
                            "push": 0,
                            "pull": 0
                        }
                    ],
                    "customClass": "text-dark",
                    "hideLabel": true,
                    "type": "columns",
                    "input": false
                },
                {
                    "columns": [
                        {
                            "components": [
                                {
                                  "label": "Company",
                                  "labelPosition": "top",
                                  "type": "select",
                                  "dataSrc": "url",
                                  "data": {
                                    "url": "Companies?$top={{limit}}&$skip={{skip}}&$select=id,name&$filter=indexof(name, '{{encodeURIComponent(search||'')}}') ge 0&$orderby=name",
                                    "headers": []
                                  },
                                  "validate": {
                                    "required": true
                                  },
                                  "limit": 15,
                                  "dataType": "object",
                                  "idPath": "id",
                                  "searchFields": ["value.id", "value.name"],
                                  "searchField": "search",
                                  "searchThreshold": "0.3",
                                  "template": "<span class='d-block pr-5'>{{ item.name }}</span>",
                                  "selectValues": "value",
                                  "key": "company",
                                  "lazyLoad": true,
                                  "widget": "choicesjs",
                                  "input": true,
                                  "searchEnabled": true,
                                  "description": "Select the brand name of the company that offers this internship.",
                                  "customClass": "formio-component-select-wrap"
                                }
                            ],
                          "width": 6
                        },
                        {
                            "components": [
                                {
                                    "type": "textfield",
                                    "label": "Company contact",
                                    "key": "companyContact",
                                    "input": true,
                                    "validate": {
                                        "required": false
                                    },
                                  "description": "Set the communication manager employee"
                                }
                            ],
                            "width": 3,
                            "offset": 0,
                            "push": 0,
                            "pull": 0
                        },
                        {
                            "components": [
                                {
                                    "type": "textfield",
                                    "label": "Company contact phone",
                                    "key": "companyContactPhone",
                                    "spellcheck": true,
                                    "inputMask": "+999999999999",
                                    "input": true,
                                    "description": "Set the contact phone number of the company. It must also contain the country code."
                                }
                            ],
                            "width": 3,
                            "offset": 0,
                            "push": 0,
                            "pull": 0
                        }
                    ],
                    "customClass": "text-dark",
                    "type": "columns",
                    "input": false
                },
                {
                    "columns": [
                        {
                            "components": [
                                {
                                    "label": "Year",
                                    "key": "internshipYear",
                                    "dataType": "object",
                                    "idPath": "id",
                                    "labelPosition": "top",
                                    "type": "select",
                                    "searchEnabled": true,
                                    "searchFields":  [ "value.id", "value.alternateName" ],
                                    "dataSrc": "url",
                                    "data": {
                                        "url": "AcademicYears/?$top=90&$orderby=id desc",
                                        "headers": []
                                    },
                                    "template": "<span class='d-block pr-5 text-truncate'>{{ item.alternateName }}</span>",
                                    "input": true,
                                    "lazyLoad": true,
                                    "selectValues": "value",
                                    "widget": "choicesjs",
                                    "validate": {
                                        "required": true
                                    },
                                    "description": "Set the academic year the internship will take place in."
                                }
                            ],
                            "width": 3,
                            "offset": 0,
                            "push": 0,
                            "pull": 0
                        },
                        {
                            "components": [
                                {
                                    "type": "datetime",
                                    "format": "dd/MM/yyyy",
                                    "label": "Start date",
                                    "key": "startDate",
                                    "input": true,
                                    "validate": {
                                        "required": true
                                    },
                                    "description": "Select the full date the internship will start"
                                }
                            ],
                            "width": 3,
                            "offset": 0,
                            "push": 0,
                            "pull": 0
                        },
                        {
                            "components": [
                                {
                                    "type": "select",
                                    "label": "Internship status",
                                    "key": "status",
                                    "dataType": "object",
                                    "idPath": "id",
                                    "input": true,
                                    "dataSrc": "url",
                                    "data": {
                                        "url": "InternshipStatuses",
                                        "headers": []
                                    },
                                    "template": "<span class='d-block pr-5 text-truncate'>{{ item.name }}</span>",
                                    "selectValues": "value",
                                    "validate": {
                                        "required": true
                                    },
                                    "defaultValue": 2,
                                    "valueProperty": "identifier",
                                    "searchEnabled": false,
                                    "lazyLoad": false,
                                    "description": "Select the status of this internship. It defaults to potential."
                                }
                            ],
                            "width": 3,
                            "offset": 0,
                            "push": 0,
                            "pull": 0
                        },
                        {
                            "components": [
                                {
                                    "type": "select",
                                    "label": "Period",
                                    "key": "internshipPeriod",
                                    "dataType": "object",
                                    "idPath": "id",
                                    "input": true,
                                    "searchEnabled": true,
                                    "searchFields":  [ "value.id", "value.alternateName" ],
                                    "dataSrc": "url",
                                    "data": {
                                        "url": "AcademicPeriods",
                                        "headers": []
                                    },
                                    "template": "<span class='d-block pr-5 text-truncate'>{{ item.name }}</span>",
                                    "selectValues": "value",
                                    "widget": "choicesjs",
                                    "validate": {
                                        "required": true
                                    },
                                    "description": "Select the academic period the internship will take place in."
                                }
                            ],
                            "width": 3,
                            "offset": 0,
                            "push": 0,
                            "pull": 0
                        }
                    ],
                    "customClass": "text-dark",
                    "type": "columns",
                    "input": false
                },
                {
                    "columns": [
                        {
                            "components": [
                                {
                                    "type": "textarea",
                                    "label": "Internship name",
                                    "key": "name",
                                    "input": true,
                                    "rows": 2,
                                    "validate": {
                                        "required": true
                                    },
                                  "description": "Set the name of the internship. This should be as descriptive as possible and no more than 512 characters."
                                }
                            ],
                            "width": 12,
                            "offset": 0,
                            "push": 0,
                            "pull": 0
                        }
                    ],
                    "customClass": "text-dark",
                    "type": "columns",
                    "input": false
                },
              {
                "columns": [
                  {
                    "components": [
                      {
                        "label": "Units",
                        "labelPosition": "top",
                        "widget": {
                          "type": "input"
                        },
                        "validate": {
                          "integer": false,
                          "min": 0,
                          "max": 100
                        },
                        "type": "number",
                        "input": true,
                        "key": "info.units",
                        "description": "Edit the number of units the student will receive for completing the internship"
                      }
                    ],
                    "width": 3,
                    "offset": 0,
                    "push": 0,
                    "pull": 0
                  },{
                    "components": [
                      {
                        "label": "ECTS",
                        "labelPosition": "top",
                        "widget": {
                          "type": "input"
                        },
                        "validate": {
                          "integer": false,
                          "min": 0,
                          "max": 300
                        },
                        "type": "number",
                        "input": true,
                        "key": "info.ects",
                        "description": "Edit the number of ECTS the student will receive for completing the internship"
                      }
                    ],
                    "width": 3,
                    "offset": 0,
                    "push": 0,
                    "pull": 0
                  },
                  {
                    "components": [
                      {
                        "label": "Working days (per week)",
                        "labelPosition": "top",
                        "widget": {
                          "type": "input"
                        },
                        "validate": {
                          "integer": false,
                          "min": 1,
                          "max": 7
                        },
                        "type": "number",
                        "input": true,
                        "key": "info.workingDays"

                      }
                    ],
                    "width": 3
                  },
                  {
                    "components": [
                      {
                        "label": "Duration (months)",
                        "labelPosition": "top",
                        "widget": {
                          "type": "input"
                        },
                        "validate": {
                          "integer": false,
                          "min": 1,
                          "max": 24
                        },
                        "type": "number",
                        "input": true,
                        "key": "info.duration"

                      }
                    ],
                    "width": 3
                  }
                ],
                "customClass": "text-dark",
                "type": "columns",
                "input": false
              }

            ]
        },
        {
            "type": "button",
            "label": "Submit",
            "key": "submit",
            "disableOnInvalid": true,
            "input": true
        }
    ]
}
