{
  "title": "CourseClasses",
  "model": "CourseClasses",
  "description": "Classes.OtherDepartmentClasses",
  "searchExpression":"indexof(title, '${text}') ge 0 or indexof(course/displayCode, '${text}') ge 0 or indexof(course/department/abbreviation, '${text}') ge 0 or indexof(course/department/name, '${text}') ge 0 or indexof(year/alternateName, '${text}') ge 0 ",
  "selectable": false,
  "multipleSelect": false,
  "columns": [
    {
      "name": "id",
      "property": "id",
      "placeholder": "Classes.Preview",
      "formatter": "ButtonFormatter",
      "formatString": "#/classes/${id}/shared",
      "className": "text-center",
      "formatOptions": {
        "buttonContent": "<i class=\"far fa-eye text-indigo\"></i>",
        "buttonClass": "btn btn-default",
        "commands": ["/classes", "${id}", "shared"]
      }
    },
    {
      "name":"course/displayCode",
      "property":"displayCode",
      "title":"Classes.DisplayCode"
    },
    {
      "name":"title",
      "property": "title",
      "title":"Classes.ClassTitle"
    },
    {
      "name":"year/alternateName",
      "property": "academicYear",
      "title":"Classes.AcademicYear"
    },
    {
      "name":"period/name",
      "property": "period",
      "title":"Classes.Period"
    },

    {
      "name":"count(students/id)",
      "property": "numberOfDepartmentStudents",
      "title":"Classes.DepartmentStudents"
    },
    {
      "name":"numberOfStudents",
      "property": "numberOfStudents",
      "title":"Classes.StudentsTotal"
    },
    {
      "name":"weekHours",
      "property": "weekHours",
      "title":"Classes.WeekHours",
      "hidden": false
    },
    {
      "name":"totalHours",
      "property": "totalHours",
      "title":"Classes.TotalHours",
      "hidden": false
    },
    {
      "name":"course/department/name",
      "property": "department",
      "title":"Classes.Department",
      "hidden": false
    },
    {
      "name":"year",
      "property": "year",
      "title": "Classes.YearId",
      "hidden": true
    },
    {
      "name":"period",
      "property": "academicPeriod",
      "title": "Classes.PeriodId",
      "hidden": true
    },
    {
      "name": "Instructors",
      "property": "instructors",
      "virtual": true,
      "sortable": false,
      "title": "Classes.Instructors",
      "formatters": [
        {
          "formatter": "TemplateFormatter",
          "formatString": "${instructors.length ? instructors.map(x => x.instructor && (x.instructor.familyName + ' ' + x.instructor.givenName)).join(', ') : '-'}"
        }
      ]
    },
    {
      "name":"course",
      "title":"Classes.Course",
      "hidden": true
    },
    {
      "name": "maxNumberOfStudents",
      "property": "maxNumberOfStudents",
      "title": "Classes.MaxNumberOfStudents",
      "hidden": true,
      "optional": true
    },
    {
      "name": "minNumberOfStudents",
      "property": "minNumberOfStudents",
      "title": "Classes.MinNumberOfStudents",
      "hidden": true,
      "optional": true
    },
    {
      "name": "absenceLimit",
      "property": "absenceLimit",
      "title": "Classes.AbsenceLimit",
      "hidden": true,
      "optional": true
    },
    {
      "name": "mustRegisterSection",
      "property": "mustRegisterSection",
      "title": "Classes.MustRegisterSection",
      "formatter": "TrueFalseFormatter",
      "hidden": true,
      "optional": true
    }
  ],
  "defaults":{
    "filter": "(department ne ${currentDepartment} and students/studentDepartment eq ${currentDepartment})",
    "groupBy": "id,course/displayCode,title,year/alternateName,period/name,numberOfStudents,course/department/name,year,period,course,weekHours,totalHours,maxNumberOfStudents,minNumberOfStudents,absenceLimit,mustRegisterSection",
    "orderBy": "year desc,period desc,title asc",
    "expand": "instructors($expand=instructor)"
  },
  "criteria": [
    {
      "name": "title",
      "filter": "(indexof(title, '${value}') ge 0)",
      "type": "text"
    },
    {
      "name": "maxNumberOfStudents",
      "filter": "${value >=1 ? '(maxNumberOfStudents gt 0)': '(maxNumberOfStudents eq null or maxNumberOfStudents le 0)'}",
      "type": "text",
      "title":  "Classes.MaxNumberOfStudents"
    },
    {
      "name": "displayCode",
      "filter": "(indexof(course/displayCode, '${value}') ge 0)",
      "type": "text"
    },
    {
      "name": "yearId",
      "filter": "(year/id eq '${value}')",
      "type": "text"
    },
    {
      "name": "period",
      "filter": "(period/alternateName eq '${value}')",
      "type": "text"
    },
    {
      "name": "currentYear",
      "filter": "(year eq '${currentYear}')",
      "type": "text"
    }
  ],
  "searches" : [
    {
      "name": "AdvancedSearch.PreDefinedLists.currentClasses",
      "filter": {
        "currentYear" : true
      }
    }
  ]
}
