{
  "title": "Courses.All",
  "model": "CourseReplacements",
  "searchExpression": "(indexof(course/name, '${text}') ge 0 or indexof(course/displayCode, '${text}') ge 0)",
  "selectable": true,
  "multipleSelect": true,
  "columns": [
    {
      "name": "id",
      "formatter": "ButtonFormatter",
      "property": "id",
      "className": "text-center",
      "formatOptions": {
        "buttonContent": "<i class=\"fas fa-edit text-indigo\"></i>",
        "buttonClass": "btn btn-default",
        "commands": [
          { "outlets":
          {
            "modal":["${id}", "edit"]
          }
          }
        ],
        "navigationExtras": {
          "replaceUrl": true,
          "skipLocationChange": true
        }
      }
    },
    {
      "name": "id",
      "property": "rulesID",
      "placeholder": "Courses.Rules",
      "formatter": "ButtonFormatter",
      "formatString":"(modal:rules)",
      "className": "text-center",
      "formatOptions": {
        "buttonContent": "<i class=\"fas fa-blender text-indigo\"></i>",
        "buttonClass": "btn btn-default",
        "commands": [
          { "outlets":
          {
            "modal":["item", "${id}", "rules"]
          }
          }
        ],
        "navigationExtras": {
          "replaceUrl": false,
          "skipLocationChange": true
        }
      }
    },
    {
      "name": "course/displayCode",
      "property": "displayCode",
      "title": "Courses.DisplayCode"
    },
    {
      "name": "course/name",
      "property": "name",
      "title": "Courses.name"
    },
    {
      "name": "course/department/abbreviation",
      "property": "departmentName",
      "title": "Courses.Department"
    },
    {
      "name":"course/courseStructureType/name",
      "property": "courseStructureTypeName",
      "title": "Courses.courseStructureType",
      "formatter": "TranslationFormatter",
      "formatString": "Courses.CourseType.${value}"
    },
    {
      "name": "notes",
      "property": "notes",
      "title": "StudyPrograms.Notes"
    },
    {
      "name": "keepBetterGrade",
      "property": "keepBetterGrade",
      "title": "StudyPrograms.Replacements.KeepBetterGrade",
      "formatter": "TrueFalseFormatter"
    },
    {
      "name": "rules",
      "property": "rules",
      "virtual": true,
      "sortable": false,
      "title": "StudyPrograms.Replacements.HasRules",
      "className": "text-center",
      "formatters": [
        {
          "formatter": "TemplateFormatter",
          "formatString": "${rules  && rules.length?'<span class=\"text-center\">' + rules[0].totalRules + '</span>':'-'}"
        }
      ]
    },
    {
      "name": "active",
      "property": "active",
      "title": "StudyPrograms.Active.Singular",
      "formatters": [
        {
          "formatter": "TrueFalseFormatter"
        },
        {
          "formatter": "NgClassFormatter",
          "formatOptions": {
            "ngClass": {
              "text-success": "${active}",
              "text-danger": "${!active}"
            }
          }
        }
      ]
    }
  ],
  "defaults": {
    "expand": "rules($select=count(id) as totalRules,target;$groupby=target)"
  },
  "criteria": [
    {
      "name": "name",
      "filter": "(indexof(course/name, '${value}') ge 0)",
      "type": "text"
    },
    {
      "name": "displayCode",
      "filter": "(indexof(course/displayCode, '${value}') ge 0)",
      "type": "text"
    },
    {
      "name": "courseStructureType",
      "filter": "(course/courseStructureType/id eq '${value}')",
      "type": "text"
    },
    {
      "name": "isActive",
      "filter": "(active eq ${value})",
      "type": "text"
    }
  ]
}
