{
  "title": "StudyPrograms.Courses",
  "model": "StudyProgramCourses",
  "searchExpression": "indexof(course/name, '${text}') ge 0 or indexof(course/displayCode, '${text}') ge 0",
  "selectable": true,
  "multipleSelect": true,
  "columns": [
    {
      "name": "id",
      "property": "id",
      "hidden": true
    },
    {
      "name": "course/displayCode",
      "property": "displayCode",
      "title": "Courses.DisplayCode"
    },
    {
      "name": "course/courseStructureType",
      "property": "courseStructureType",
      "title": "Courses.courseStructureTypeId",
      "hidden": true
    },
    {
      "name": "course/name",
      "property": "name",
      "title": "Courses.name"
    },
    {
      "name": "course/department/abbreviation",
      "property": "department",
      "title": "Courses.Department"
    },
    {
      "name": "course/id",
      "property": "courseId",
      "title": "Courses.courseId",
      "hidden": true
    }
  ],
  "defaults": {
  }
}
