{
  "model": "PreferredSpecialtyRequestActions",
  "title": "PreferredSpecialtyRequestActions",
  "settings": {
    "i18n": {
      "el": {
        "Title": "Τίτλος Αίτησης",
        "Notes": "Σχόλια",
        "Academic period": "Ακαδημαϊκή περίοδος",
        "From specialty": "Από κατεύθυνση",
        "To specialty": "Σε κατεύθυνση"
      }
    }
  },
  "components": [
    {
      "type": "fieldset",
      "components": [
        {
          "columns": [
            {
              "components": [
                {
                  "label": "Title",
                  "labelPosition": "top",
                  "widget": {
                    "type": "input"
                  },
                  "validate": {
                    "required": false
                  },
                  "key": "name",
                  "type": "textfield",
                  "input": true,
                  "disabled": true
                }
              ],
              "width": 12
            },
            {
              "components": [
                {
                  "label": "Academic Year",
                  "labelPosition": "top",
                  "key": "academicYear.alternateName",
                  "type": "select",
                  "searchEnabled": true,
                  "dataSrc": "url",
                  "data": {
                    "url": "AcademicYears?$top={{limit}}&$skip={{skip}}&$orderby=id desc",
                    "headers": []
                  },
                  "limit": 20,
                  "template": "{{ item.alternateName }}",
                  "input": true,
                  "lazyLoad": true,
                  "selectValues": "value",
                  "disabled": true,
                  "widget": "choicesjs"
                }
              ],
              "width": 3
            },
            {
              "components": [
                {
                  "label": "Academic period",
                  "labelPosition": "top",
                  "widget": "choicesjs",
                  "dataSrc": "url",
                  "data": {
                    "url": "AcademicPeriods",
                    "headers": []
                  },
                  "template": "{{ item.name }}",
                  "selectValues": "value",
                  "key": "academicPeriod.name",
                  "type": "select",
                  "input": true,
                  "disabled": true,
                  "searchEnabled": false
                }
              ],
              "width": 3
            },
            {
              "components": [
                {
                  "label": "Study Program",
                  "labelPosition": "top",
                  "key": "specialty.studyProgram.name",
                  "widget": {
                    "type": "input"
                  },
                  "type": "textfield",
                  "input": true,
                  "disabled": true
                }
              ],
              "width": 6
            },
            {
              "components": [
                {
                  "label": "From specialty",
                  "labelPosition": "top",
                  "key": "currentSpecialty.name",
                  "widget": {
                    "type": "input"
                  },
                  "type": "textfield",
                  "input": true,
                  "disabled": true
                }
              ],
              "width": 6
            },
            {
              "components": [
                {
                  "label": "To specialty",
                  "labelPosition": "top",
                  "key": "specialty.name",
                  "widget": {
                    "type": "input"
                  },
                  "type": "textfield",
                  "input": true,
                  "disabled": true
                }
              ],
              "width": 6
            },
            {
              "components": [
                {
                  "label": "Notes",
                  "labelPosition": "top",
                  "widget": {
                    "type": "input"
                  },
                  "validate": {
                    "required": false
                  },
                  "key": "description",
                  "type": "textarea",
                  "input": true,
                  "disabled": true
                }
              ],
              "width": 12
            }
          ],
          "customClass": "text-dark",
          "hideLabel": true,
          "type": "columns",
          "input": false
        }
      ]
    }
  ],
  "width": 3
}
