{
    "model": "StudentCourses",
    "title": "Student Courses",
    "subtitle": "Edit",
    "display": "form",
    "settings": {
        "i18n": {
            "el": {
                "Edit": "Επεξεργασία",
                "General": "Γενικά",
                "Course": "Μάθημα",
                "Type": "Τύπος",
                "Course Title": "Τίτλος μαθήματος",
                "Set course type according to rules and requirements of this study program.": "Ορίστε τον τύπο του μαθήματος σύμφωνα με τους κανόνες και τις προϋποθέσεις του προγράμματος σπουδών.",
                "Units": "Διδακτικές μονάδες",
                "Set course units. Course units will be used while validating degree requirements.": "Ορίστε τις διδακτικές μονάδες. Οι διδακτικές μονάδες ενός μαθήματος θα χρησιμοποιηθούν κατά τον έλεγχο προϋποθέσεων λήψης πτυχίου.",
                "ECTS": "ECTS",
                "Specialty": "Κατεύθυνση",
                "Set ECTS units. Course ECTS will be used while validating degree requirements.": "Ορίστε τις μονάδες ECTS. Οι μονάδες ECTS ενός μαθήματος θα χρησιμοποιηθούν κατά τον έλεγχο προϋποθέσεων λήψης πτυχίου.",
                "Set course semester according to rules and requirements of this study program.": "Ορίστε το εξάμηνο του μαθήματος σύμφωνα με τους κανόνες και τις προϋποθέσεις του προγράμματος σπουδών.",
                "These are the only course attributes you can edit for declared/graduated students.": "Οι παραπάνω είναι οι μόνες επεξεργάσιμες ιδιότητες μαθημάτων ανακηρυχθέντων/πτυχιούχων φοιτητών.",
                "Set the course title for this alternate language": "Ορίστε τον τίτλο του μαθήματος σε αυτήν την εναλλακτική γλώσσα.",
                "Set the course notes for this alternate language": "Ορίστε τις σημειώσεις του μαθήματος σε αυτήν την εναλλακτική γλώσσα."
            }
        }
    },
    "components": [
        {
            "type": "fieldset",
            "components": [
                {
                    "label": "HTML",
                    "tag": "h5",
                    "className": "font-weight-normal",
                    "content": "{{instance.t(form.subtitle)}}",
                    "refreshOnChange": false,
                    "tableView": false,
                    "key": "subtitle",
                    "type": "htmlelement",
                    "input": false
                },
                {
                    "columns": [
                        {
                            "components": [
                                {
                                    "label": "Course Title",
                                    "spellcheck": true,
                                    "validate": {
                                        "required": true
                                    },
                                    "widget": {
                                        "type": "input"
                                    },
                                    "key": "courseTitle",
                                    "type": "textfield",
                                    "input": true,
                                    "hideOnChildrenHidden": false
                                },
                                {
                                    "label": "Type",
                                    "labelPosition": "top",
                                    "widget": "choicesjs",
                                    "dataSrc": "url",
                                    "data": {
                                        "url": "CourseTypes?$top={{limit}}&$skip={{skip}}&$select=id,name&$filter=indexof(name, '{{encodeURIComponent(search||'')}}') ge 0&$orderby=name",
                                        "headers": []
                                    },
                                    "validate": {
                                        "required": true
                                    },
                                    "template": "<span class='col-4 text-truncate'>{{ item.name }}</span>",
                                    "searchEnabled": true,
                                    "searchThreshold": "0.3",
                                    "searchField": "search",
                                    "selectValues": "value",
                                    "key": "courseType",
                                    "limit": 15,
                                    "dataType": "object",
                                    "idPath": "id",
                                    "type": "select",
                                    "input": true,
                                    "lazyLoad": true,
                                    "description": "Set course type according to rules and requirements of this study program."
                                },
                                {
                                    "label": "Semester",
                                    "labelPosition": "top",
                                    "widget": "choicesjs",
                                    "dataSrc": "url",
                                    "data": {
                                        "url": "Semesters?$orderby=id",
                                        "headers": []
                                    },
                                    "template": "<span class='col-4 text-truncate'>{{ item.name }}</span>",
                                    "selectValues": "value",
                                    "key": "semester",
                                    "searchEnabled": false,
                                    "type": "select",
                                    "input": true,
                                    "lazyLoad": false,
                                    "description": "Set course semester according to rules and requirements of this study program.",
                                    "validate": {
                                        "required": true
                                    }
                                }
                            ],
                            "width": 6,
                            "offset": 0,
                            "push": 0,
                            "pull": 0
                        },
                        {
                            "components": [
                                {
                                    "label": "Specialty",
                                    "labelPosition": "top",
                                    "widget": "choicesjs",
                                    "dataSrc": "url",
                                    "data": {
                                        "url": "StudyProgramSpecialties?$filter=(specialty eq -1) or (specialty eq {{data?.student?.specialtyId}}) and (studyProgram eq {{data?.student?.studyProgram?.id}})&$orderby=id",
                                        "headers": []
                                    },
                                    "template": "<span class='col-4 text-truncate'>{{ item.name }}</span>",
                                    "selectValues": "value",
                                    "key": "specialty",
                                    "searchEnabled": false,
                                    "type": "select",
                                    "input": true,
                                    "lazyLoad": true,
                                    "customConditional": "show = !!(data.student && data.student.specialtyId && data.student.studyProgram && data.student.studyProgram.id);",
                                    "validate": {
                                        "required": true
                                    }
                                },
                                {
                                    "label": "Units",
                                    "mask": false,
                                    "spellcheck": true,
                                    "tableView": false,
                                    "delimiter": false,
                                    "requireDecimal": false,
                                    "inputFormat": "plain",
                                    "validate": {
                                        "required": true
                                    },
                                    "key": "units",
                                    "type": "number",
                                    "input": true,
                                    "hideOnChildrenHidden": false,
                                    "description": "Set course units. Course units will be used while validating degree requirements."
                                },
                                {
                                    "label": "ECTS",
                                    "mask": false,
                                    "spellcheck": true,
                                    "tableView": false,
                                    "delimiter": false,
                                    "requireDecimal": false,
                                    "inputFormat": "plain",
                                    "validate": {
                                        "required": true
                                    },
                                    "key": "ects",
                                    "type": "number",
                                    "input": true,
                                    "hideOnChildrenHidden": false,
                                    "description": "Set ECTS units. Course ECTS will be used while validating degree requirements."
                                }
                            ],
                            "width": 6,
                            "offset": 0,
                            "push": 0,
                            "pull": 0
                        },
                        {
                            "components": [
                                {
                                    "label": "Notes",
                                    "labelPosition": "top",
                                    "widget": {
                                        "type": "input"
                                    },
                                    "validate": {
                                        "required": false
                                    },
                                    "key": "notes",
                                    "type": "textarea",
                                    "input": true
                                }
                            ],
                            "width": 12,
                            "offset": 0,
                            "push": 0,
                            "pull": 0
                        },
                        {
                            "components": [
                              {
                                "key": "fieldSet",
                                "type": "fieldset",
                                "input": false,
                                "customClass": "mt-2 font-weight-normal",
                                "components": [
                                  {
                                    "label": "",
                                    "hideLabel": true,
                                    "key": "locales",
                                    "type": "datagrid",
                                    "disableAddingRemovingRows": true,
                                    "input": true,
                                    "customClass": "fix-panel-for-locales border-0 p-0",
                                    "components": [
                                      {
                                        "collapsible": false,
                                        "hideLabel": true,
                                        "key": "panel",
                                        "type": "panel",
                                        "title": "",
                                        "hideTitle": true,
                                        "input": false,
                                        "tableView": false,
                                        "components": [
                                          {
                                            "content": "<div class=\"h6 font-weight-bold text-secondary border-bottom pb-3 border-gray-200 font-weight-normal\">{{instance.t(row.inLanguage)}}</div>",
                                            "refreshOnChange": false,
                                            "key": "html",
                                            "type": "htmlelement",
                                            "input": false,
                                            "tableView": false,
                                            "customConditional": "show = row.inLanguage && row.inLanguage.length"
                                          },
                                          {
                                            "label": "Course Title",
                                            "tableView": true,
                                            "description": "Set the course title for this alternate language",
                                            "key": "courseTitle",
                                            "type": "textfield",
                                            "validate": {
                                                "maxLength": 150
                                            },
                                            "input": true
                                          },
                                          {
                                            "label": "Notes",
                                            "tableView": true,
                                            "description": "Set the course notes for this alternate language",
                                            "key": "notes",
                                            "type": "textarea",
                                            "validate": {
                                              "maxLength": 100
                                            },
                                            "input": true
                                          }
                                        ]
                                      }
                                    ]
                                  }
                                ]
                              }
                            ],
                            "width": 12
                        },
                        {
                            "components": [
                              {
                                "content": "These are the only course attributes you can edit for declared/graduated students.",
                                "customClass": "text-indigo",
                                "type": "htmlelement"
                              }
                            ],
                            "width": 12,
                            "offset": 0,
                            "push": 0,
                            "pull": 0,
                            "size": "md"
                          }
                    ],
                    "hideLabel": true,
                    "type": "columns",
                    "input": false
                }
            ]
        },
        {
            "type": "button",
            "label": "Submit",
            "key": "submit",
            "theme": "indigo",
            "hidden": true,
            "disableOnInvalid": true,
            "input": true,
            "tableView": false
        }
    ]
}
