{
	"model": "DepartmentSnapshots",
	"settings": {
		"i18n": {
			"el": {
        "Description": "Περιγραφή",
        "Edit department history": "Επεξεργασία ιστορικού τμήματος",
      	"Abbreviation": "Συντομογραφία",
        "Institute name": "Ονομασία ιδρύματος",
        "Academic period": "Ακαδημαϊκή περίοδος",
        "Set the academic period the changes refer to": "Ορίστε την περίοδο κατά την οποία έγιναν οι αλλαγές",
        "Set the academic year the changes refer to": "Ορίστε το έτος κατά το οποίο έγιναν οι αλλαγές"
      }
		}
	},
	"components": [
    {
      "legend": "Edit department history",
      "key": "fieldSet",
      "type": "fieldset",
      "input": false,
      "label": "General Information"
    },
		{
			"label": "Tabs",
			"type": "tabs",
			"key": "tabs1",
			"path": "tabs1",
			"input": false,
			"components": [

				{
					"label": "General Information",
					"components": [
						{
							"components": [
								{
									"columns": [
                    {
                      "components": [
                        {
                          "label": "Description",
                          "labelPosition": "top",
                          "widget": {
                            "type": "input"
                          },
                          "validate": {
                            "required": true
                          },
                          "key": "description",
                          "type": "textfield",
                          "input": true
                        }
                      ],
                      "width": 8
                    },
                    {
                      "components": [
                        {
                          "label": "Academic Year",
                          "labelPosition": "top",
                          "widget": "choicesjs",
                          "dataSrc": "url",
                          "searchFields": [
                            "value.id",
                            "value.alternateName"
                          ],
                          "data": {
                            "url": "AcademicYears?$top={{limit}}&$skip={{skip}}&$orderby=name desc",
                            "headers": []
                          },
                          "validate": {
                            "required": true
                          },
                          "limit": 15,
                          "template": "<span class='col-4 text-truncate'>{{ item.name }}</span>",
                          "selectValues": "value",
                          "key": "currentYear",
                          "searchEnabled": true,
                          "selectThreshold": 0.3,
                          "type": "select",
                          "input": true,
                          "lazyLoad": true,
                          "description": "Set the academic year the changes refer to"
                        }
                      ],
                      "width": 6
                    },
                    {
                      "components": [
                        {
                          "label": "Academic period",
                          "labelPosition": "top",
                          "widget": "choicesjs",
                          "dataSrc": "url",
                          "searchFields": [
                            "value.id",
                            "value.alternateName"
                          ],
                          "data": {
                            "url": "AcademicPeriods?$top={{limit}}&$skip={{skip}}&$orderby=name desc",
                            "headers": []
                          },
                          "validate": {
                            "required": true
                          },
                          "limit": 15,
                          "template": "<span class='col-4 text-truncate'>{{ item.name }}</span>",
                          "selectValues": "value",
                          "key": "currentPeriod",
                          "selectThreshold": 0.3,
                          "type": "select",
                          "input": true,
                          "lazyLoad": true,
                          "description": "Set the academic period the changes refer to"
                        }
                      ],
                      "width": 6
                    },
										{
											"components": [
												{
													"label": "Department Name",
													"labelPosition": "top",
													"widget": {
														"type": "input"
													},
													"validate": {
														"required": true
													},
													"key": "name",
													"type": "textfield",
													"input": true

												}
											],
											"width": 6
										},
										{
											"components": [
												{
													"label": "Faculty Name",
													"labelPosition": "top",
													"widget": "choicesjs",
													"dataSrc": "url",
													"searchFields": [
														"id"
													],
													"selectThreshold": 0.3,
													"selectValues": "value",
													"key": "facultyName",
													"type": "textfield",
													"input": true

												}
											],
											"width": 6
										}
									],
									"customClass": "text-dark",
									"hideLabel": true,
									"type": "columns",
									"input": false
								},
								{
									"columns": [
										{
												"components": [
														{
																"label": "Abbreviation",
																"labelPosition": "top",
																"widget": {
																		"type": "input"
																},
																"validate": {
																		"required": true
																},
																"key": "abbreviation",
																"type": "textfield",
																"input": true

														}
												],
												"width": 3
										},
										{
											"components": [
												{
													"label": "Institute name",
													"labelPosition": "top",
													"widget": {
														"type": "input"
													},
													"validate": {
														"required": true
													},
													"key": "instituteName",
													"type": "textfield",
													"input": true
												}
											],
											"width": 5
										},
										{
											"components": [
												{
													"label": "Semesters",
													"labelPosition": "top",
													"widget": {
														"type": "input"
													},
													"validate": {
														"required": true,
														"integer": true,
														"min": 1,
														"max": 14
													},
													"key": "totalSemesters",
													"type": "number",
													"input": true

												}
											],
											"width": 3
                        }

                  ],
									"customClass": "text-dark",
									"type": "columns",
									"input": false
								}
							]
						},
						{

							"components": [
								{
									"columns": [
										{
											"components": [
												{
													"label": "Contact Person",
													"labelPosition": "top",
													"widget": {
														"type": "input"
													},
													"validate": {
														"required": false
													},
													"key": "contactPerson1",
													"type": "textfield",
													"input": true

												}
											],
											"width": 6
										},
										{
											"components": [
												{
													"label": "Alternative Contact Person",
													"labelPosition": "top",
													"widget": {
														"type": "input"
													},
													"validate": {
														"required": false
													},
													"key": "contactPerson2",
													"type": "textfield",
													"input": true

												}
											],
											"width": 6
										}
									],
									"customClass": "text-dark",
									"hideLabel": true,
									"type": "columns",
									"input": false
								},
								{
									"columns": [
									  {
                      "components": [
                        {
                          "label": "Notes",
                          "labelPosition": "top",
                          "widget": {
                            "type": "input"
                          },
                          "validate": {
                            "required": false
                          },
                          "key": "notes",
                          "type": "textarea",
                          "input": true
                        }
                      ],
                      "width": 12,
                      "offset": 0,
                      "push": 0,
                      "pull": 0
                    }
									],
									"customClass": "text-dark",
									"type": "columns",
									"input": false
								}
							]
						}
					]

				},
				{
				  "legend": "Other languages",
				  "key": "fieldSet",
				  "type": "fieldset",
				  "input": false,
				  "label": "Other languages",

				  "components": [{
					"label": "",
					"hideLabel": true,
					"key": "locales",
					"type": "datagrid",
					"disableAddingRemovingRows": true,
					"input": true,
					"customClass": "fix-panel-for-locales border-0",
					"components": [{
					  "collapsible": false,
					  "hideLabel": true,
					  "key": "panel",
					  "type": "panel",
					  "title": "",
					  "hideTitle": true,
					  "input": false,
					  "tableView": false,
					  "components": [{
							"content": "<div class=\"h4 text-secondary border-bottom pb-3 border-gray-200 font-weight-normal\">{{instance.t(row.inLanguage)}}</div>",
							"refreshOnChange": false,
							"key": "html",
							"type": "htmlelement",
							"input": false,
							"tableView": false,
							"customConditional": "show = row.inLanguage && row.inLanguage.length"
						},
						{
							"label": "Name",
							"tableView": true,
							"key": "name",
							"type": "textfield",
							"input": true
						},
              {
                "label": "Institute name",
                "tableView": true,
                "key": "instituteName",
                "type": "textfield",
                "input": true
              },
              {
                "label": "Faculty Name",
                "tableView": true,
                "key": "facultyName",
                "type": "textfield",
                "input": true
              },
          	{
							"label": "Contact Person",
							"tableView": true,
							"key": "contactPerson1",
							"type": "textfield",
							"input": true
						},
						{
						  "label": "Alternative Contact Person",
						  "tableView": true,
						  "key": "contactPerson2",
						  "type": "textfield",
						  "input": true
						},
						{
						  "label": "Notes",
						  "tableView": true,
						  "key": "notes",
						  "type": "textarea",
						  "input": true
						}
					  ]
					}]
				  }]

				}
			]


		},
		{
			"type": "button",
			"label": "Submit",
			"key": "submit",
			"disableOnInvalid": true,
			"input": true
		}

	]
}
