{
    "components": [
        {
            "label": "Columns",
            "columns": [
                {
                    "components": [
                        {
                            "label": "Hahe unit",
                            "widget": "choicesjs",
                            "dataSrc": "url",
                            "defaultValue": "",
                            "labelPosition": "top",
                            "customClass": "formio-component-select-wrap",
                            "data": {
                              "values": [],
                              "url": "/HaheUnits?$top=-1&$orderby=title",
                              "headers": []
                            },
                            "validate": {
                              "required": true
                            },
                            "valueProperty": "id",
                            "lazyLoad": false,
                            "dataType": "string",
                            "template": "<span>[{{ item.unitCode}}] {{ item.title }}</span><br/><span>",
                            "selectThreshold": 0.3,
                            "searchEnabled": true,

                            "key": "haheUnit",
                            "type": "select",
                            "selectValues": "value",
                            "input": true
                          }
                    ],
                    "width": 8,
                    "offset": 0,
                    "push": 0,
                    "pull": 0,
                    "size": "md"
                },
                {
                    "components": [],
                    "width": 12,
                    "offset": 0,
                    "push": 0,
                    "pull": 0,
                    "size": "md"
                }
            ],
            "key": "columns",
            "type": "columns",
            "input": false,
            "tableView": false
        }
    ]
}
