{
  "model": "AttachmentTypes",
  "settings": {
    "i18n": {
      "el": {
        "Set the name of the country": "Ορίστε την ονομασία της χώρας",
        "Alpha-2 code": "Κωδικός Alpha-2",
        "Two-letter country codes as defined in ISO 3166-1.": "Κωδικός χώρας δύο γραμμάτων όπως ορίζονται στο ISO 3166-1.",
        "Alpha-3 code": "Κωδικός Alpha-3",
        "Three-letter country codes as defined in ISO 3166-1.": "Κωδικός χώρας τριών γραμμάτων όπως ορίζονται στο ISO 3166-1.",
        "This field must contain 2 latin uppercase characters.": "Tο πεδίο πρέπει να περιέχει 2 λατινικούς κεφαλαίους χαρακτήρες.",
        "This field must contain 3 latin uppercase characters.": "Tο πεδίο πρέπει να περιέχει 3 λατινικούς κεφαλαίους χαρακτήρες."
      }
    }
  },
  "components": [
    {
      "label": "Tabs",
      "type": "tabs",
      "key": "tabs1",
      "path": "tabs1",
      "input": false,
      "components": [
        {
          "label": "General Information",
          "components": [
            {
              "type": "fieldset",
              "components": [
                {
                  "label": "HTML",
                  "tag": "h5",
                  "className": "font-weight-normal",
                  "content": "{{instance.i18next.translator.translate('Edit item')}}",
                  "refreshOnChange": false,
                  "tableView": false,
                  "key": "subtitle",
                  "type": "htmlelement",
                  "input": false
                },
                {
                  "columns": [
                    {
                      "components": [
                        {
                          "label": "Name",
                          "labelPosition": "top",
                          "widget": {
                            "type": "input"
                          },
                          "validate": {
                            "required": true
                          },
                          "key": "name",
                          "type": "textfield",
                          "input": true,
                          "disabled": false,
                          "description": "Set the name of the country"
                        }
                      ],
                      "width": 7
                    },
                    {
                      "components": [
                        {
                          "label": "Alpha-2 code",
                          "labelPosition": "top",
                          "widget": {
                            "type": "input"
                          },
                          "validate": {
                            "required": true,
                            "pattern": "^[A-Z]{2}$",
                            "customMessage": "This field must contain 2 latin uppercase characters."
                          },
                          "key": "alpha2code",
                          "type": "textfield",
                          "input": true,
                          "disabled": false,
                          "description": "Two-letter country codes as defined in ISO 3166-1."
                        }
                      ],
                      "width": 6
                    },
                    {
                      "components": [
                        {
                          "label": "Alpha-3 code",
                          "labelPosition": "top",
                          "widget": {
                            "type": "input"
                          },
                          "validate": {
                            "required": false,
                            "pattern": "^[A-Z]{3}$",
                            "customMessage": "This field must contain 3 latin uppercase characters."
                          },
                          "key": "alpha3code",
                          "type": "textfield",
                          "input": true,
                          "disabled": false,
                          "description": "Three-letter country codes as defined in ISO 3166-1."
                        }
                      ],
                      "width": 6
                    }
                  ],
                  "customClass": "text-dark",
                  "hideLabel": true,
                  "type": "columns",
                  "input": false
                }
              ]
            }
          ]
        },
        {
          "legend": "Other languages",
          "key": "fieldSet",
          "type": "fieldset",
          "input": false,
          "label": "Other languages",
          "components": [
            {
              "label": "",
              "hideLabel": true,
              "key": "locales",
              "type": "datagrid",
              "disableAddingRemovingRows": true,
              "input": true,
              "customClass": "fix-panel-for-locales",
              "components": [
                {
                  "collapsible": false,
                  "hideLabel": true,
                  "key": "panel",
                  "type": "panel",
                  "title": "",
                  "hideTitle": true,
                  "input": false,
                  "tableView": false,
                  "components": [
                    {
                      "label": "Language",
                      "tableView": true,
                      "key": "inLanguage",
                      "disabled": "true",
                      "type": "textfield",
                      "input": true
                    },
                    {
                      "label": "Name",
                      "tableView": true,
                      "key": "name",
                      "type": "textfield",
                      "input": true
                    }
                  ]
                }
              ]
            }
          ]
        }
      ]
    },
    {
      "type": "button",
      "label": "Submit",
      "key": "submit",
      "disableOnInvalid": true,
      "input": true
    }
  ]
}