{
  "model": "RequestDocumentActions",
  "title": "New document request",
  "settings": {
    "i18n": {
      "el": {
        "New document request": "Νέα αίτηση εγγράφου",
        "Specify the document template you want on behalf of student": "Ορίστε τον τύπο εγγράφου που θέλετε να αιτηθείτε εκ μέρους του φοιτητή",
        "Specify an additional note that the request needs": "Ορίστε κάποια επιπλέον σημείωση που χρειάζεται η αίτηση"
      }
    }
  },
  "components": [
    {
      "key": "fieldset",
      "type": "fieldset",
      "input": false,
      "components": [
        {
          "columns": [
            {
              "components": [
                {
                  "label": "Document template",
                  "widget": "choicesjs",
                  "dataSrc": "url",
                  "data": {
                    "url": "DocumentConfigurations?$top=-1&$orderby=name",
                    "headers": []
                  },
                  "selectThreshold": 0.3,
                  "validate": {
                    "required": true
                  },
                  "template": "{{ item.name }}",
                  "key": "object",
                  "valueProperty": "id",
                  "selectValues": "value",
                  "type": "select",
                  "input": true,
                  "hideOnChildrenHidden": false,
                  "disableLimit": false,
                  "lazyLoad": true,
                  "description": "Specify the document template you want on behalf of student",
                  "customOptions": {
                    "searchResultLimit": 999
                  },
                  "useExactSearch": true
                }
              ],
              "width": 12,
              "offset": 0,
              "push": 0,
              "pull": 0
            },
            {
              "components": [
                {
                  "label": "Description",
                  "widget": "choicesjs",
                  "selectThreshold": 0.3,
                  "validate": {
                    "unique": false,
                    "multiple": false
                  },
                  "key": "description",
                  "type": "textarea",
                  "input": true,
                  "hideOnChildrenHidden": false,
                  "disableLimit": false,
                  "description": "Specify an additional note that the request needs"
                }
              ],
              "width": 12,
              "offset": 0,
              "push": 0,
              "pull": 0
            }
          ],
          "customClass": "text-dark",
          "type": "columns",
          "input": false
        }
      ]
    }

  ]
}
