{
  "settings": {
    "i18n": {
      "el": {
        "Student user": "Χρήστης φοιτητή",
        "Select the user that will be linked to the student": "Επιλέξτε τον χρήστη που θα συνδεθεί με τον/την φοιτητή/τρια."
      }
    }
  },
  "components": [
    {
      "type": "fieldset",
      "components": [
        {
          "columns": [
            {
              "components": [
                {
                  "label": "Student user",
                  "labelPosition": "top",
                  "widget": "choicesjs",
                  "dataSrc": "url",
                  "data": {
                    "url": "Users?$top={{limit}}&$skip={{skip}}&$filter=groups/name eq 'Students' and enabled eq 1 and (indexof(name, '{{encodeURIComponent(search||'')}}') ge 0 or indexof(alternateName, '{{encodeURIComponent(search||'')}}') ge 0)&$orderby=id desc",
                    "headers": []
                  },
                  "limit": 25,
                  "lazyLoad": false,
                  "dataType": "object",
                  "idPath": "id",
                  "searchField": "search",
                  "template": "{{ item.name }} - ({{item.alternateName}})",
                  "selectValues": "value",
                  "key": "user",
                  "type": "select",
                  "input": true,
                  "validate": {
                    "required": true
                  },
                  "searchDebounce": 1,
                  "customClass": "formio-component-select-wrap",
                  "description": "Select the user that will be linked to the student"
                }
              ],
              "width": 12
            }
          ],
          "customClass": "text-dark",
          "hideLabel": true,
          "type": "columns",
          "input": false
        }
      ]
    }
  ],
  "width": 3
}
