{
    "model": "Courses",
    "settings": {
      "i18n": {
        "el": {
          "Course": "Μάθημα",  
          "Replaced": "Αντικατέστησε τα",
          "Specify the courses it replaces": "Ορισμός μαθημάτων που αντικαθιστά",
          "Specify the courses that the current one replaces. The replaced courses will be set as inactive": "Ορίστε τα μαθήματα που αντικαθιστά το επιλεγμένο. Τα μαθήματα που αντικαθίστανται θα οριστούν ως ανενεργά.",
          "A course part cannot replace other courses": "Τα μέρη μαθήματος δεν μπορούν να αντικαταστήσουν άλλα μαθήματα.",
          "Only active courses can replace others": "Μόνο ενεργά μαθήματα μπορούν να αντικαταστήσουν άλλα."
        }
      }
    },
    "components": [
      {
        "type": "fieldset",
        "legend": "Specify the courses it replaces",
        "components": [
          {
            "customClass": "text-dark",
            "hideLabel": true,
            "type": "columns",
            "input": true,
            "columns": [
              {
                "components": [
                  {
                    "label": "Course",
                    "labelPosition": "top",
                    "widget": {
                      "type": "input"
                    },
                    "validate": {
                      "required": false
                    },
                    "key": "customName",
                    "calculateValue": "value = \"[\" + data.displayCode + \"]\" + \" - \" + data.name",
                    "type": "textfield",
                    "input": true,
                    "disabled": true
                  }
                ],
                "width": 6
              },
              {
                "components": [
                  {
                    "label": "Course Structure Type",
                    "labelPosition": "top",
                    "widget": "choicesjs",
                    "searchEnabled": false,
                    "dataSrc": "url",
                    "data": {
                      "values": [],
                      "url": "/CourseStructureTypes?$top=-1&$skip=0&$select=id,name"
                    },
                    "dataType": "string",
                    "validate": {
                      "required": false
                    },
                    "selectThreshold": 0.3,
                    "lazyLoad": false,
                    "template": "{{ item.name }}",
                    "valueProperty": "id",
                    "selectValues": "value",
                    "key": "courseStructureType",
                    "type": "select",
                    "input": true,
                    "disabled": true
                  }
                ],
                "width": 4
              },
              {
                "components": [
                  {
                    "label": "Enabled",
                    "labelPosition": "top",
                    "widget": "choicesjs",
                    "searchEnabled": false,
                    "data": {
                      "values": [
                        {
                          "label": "No",
                          "value": "0"
                        },
                        {
                          "label": "Yes",
                          "value": "1"
                        }
                      ]
                    },
                    "validate": {
                      "required": false
                    },
                    "selectThreshold": 0.3,
                    "key": "isEnabled",
                    "type": "select",
                    "input": true,
                    "defaultValue": "0",
                    "disabled": "true",
                    "description": "Only active courses can replace others"
                  }
                ],
                "width": 3
              },
              {
                "components": [
                  {
                    "label": "Replaced",
                    "dataSrc": "url",
                    "customConditional": "show = !!(data.department) && data.courseStructureType != 8;",
                    "data": {
                      "values": [],
                      "url": "/Courses?$top=-1&$skip=0&$select=id,name,displayCode&$filter=department eq {{data.department}} and courseStructureType ne 8 and isEnabled eq 0 and (replacedByCourse eq null or replacedByCourse eq '{{data.id}}')",
                      "headers": []
                    },
                    "template": "<span>[{{item.displayCode}}] - {{ item.name }}</span>",
                    "dataType": "string",
                    "valueProperty": "id",
                    "selectValues": "value",
                    "key": "replacedCourse",
                    "lazyLoad": false,
                    "type": "select",
                    "input": true,
                    "multiple": true,
                    "calculateValue": "value = data.replacedCourse ? data.replacedCourse.toString().split(',').map(id => id.trim()) : ''",
                    "logic": [
                      {
                        "name": "disableLogic",
                        "trigger": {
                          "type": "simple",
                          "simple": {
                            "show": true,
                            "when": "isEnabled",
                            "eq": 0
                          }
                        },
                        "actions": [
                          {
                            "name": "disableAction",
                            "type": "property",
                            "property": {
                              "label": "Disabled",
                              "value": "disabled",
                              "type": "boolean"
                            },
                            "state": true
                          }
                        ]
                    }],
                    "description": "Specify the courses that the current one replaces. The replaced courses will be set as inactive"
                  }
                ],
                "width": 8,
                "offset": 0,
                "push": 0,
                "pull": 0,
                "size": "md"
              },
              {
                "components": [
                  {
                    "customConditional": "show = data.courseStructureType == 8;",
                    "content": "A course part cannot replace other courses",
                    "customClass": "text-indigo",
                    "type": "htmlelement"
                  }
                ],
                "width": 8,
                "offset": 0,
                "push": 0,
                "pull": 0,
                "size": "md"
              }
            ]
          }
        ]
      },
      {
        "type": "button",
        "label": "Submit",
        "key": "submit",
        "disableOnInvalid": true,
        "input": true
      }
    ]
  }
  