{
  "$schema": "https://universis.gitlab.io/ngx-tables/schemas/v1/schema.json",
  "model": "Departments",
  "searchExpression": "(indexof(name, '${text}') ge 0)",
  "multipleSelect": true,
  "selectable": true,
  "columns": [
    {
      "name": "id",
      "property": "id",
      "title": "Settings.Attributes.id"
    },
    {
      "name": "name",
      "title": "Settings.Attributes.departmentName",
      "hidden": false
    },
    {
      "name": "haheUnitCode",
      "property": "haheUnitCode",
      "title": "Settings.Attributes.unitCodeHahe",
      "virtual": true,
      "sortable": false,
      "formatters": [
        {
          "formatter": "TemplateFormatter",
          "formatString": "${ obj.hasOwnProperty('haheUnit') ?haheUnit && haheUnit.unitCode:'-'}"
        }
      ]
    },
    {
      "name": "haheUnitTitle",
      "property": "haheUnitTitle",
      "title": "Settings.Attributes.unitTitle",
      "virtual": true,
      "sortable": false,
      "formatters": [
        {
          "formatter": "TemplateFormatter",
          "formatString": "${ obj.hasOwnProperty('haheUnit') ?haheUnit && haheUnit.title:'-'}"
        }
      ]
    }
  ],
  "defaults": {
    "filter": "localDepartment eq 1 and id eq departments()",
    "expand": "haheUnit"
  },
  "criteria": [
    {
      "name": "name",
      "filter": "(indexof(name, '${value}') ge 0)",
      "type": "text"
    }
  ]
}
